﻿# Tiled2Unity generated file. Do not modify by hand.
# Wavefront file for 'Map2_mesh_0001.obj'

# Vertices (Count = 4)
v 0 -32 0
v -1000 -32 0
v -1000 464 0
v 0 464 0

# Texture cooridinates (Count = 4)
vt 0 0
vt 1 0
vt 1 1
vt 0 1

# Normal
vn 0 0 -1

# Mesh description
g Map2_mesh_0001

# Faces
f 1/1/1 2/2/1 3/3/1 4/4/1

