﻿# Tiled2Unity generated file. Do not modify by hand.
# Wavefront file for 'Map1_mesh_0002.obj'

# Vertices (Count = 1040)
v -736 -32 0
v -768 -32 0
v -768 0 0
v -736 0 0
v -768 -32 0
v -800 -32 0
v -800 0 0
v -768 0 0
v -800 -32 0
v -832 -32 0
v -832 0 0
v -800 0 0
v -832 -32 0
v -864 -32 0
v -864 0 0
v -832 0 0
v -864 -32 0
v -896 -32 0
v -896 0 0
v -864 0 0
v -736 -64 0
v -768 -64 0
v -768 -32 0
v -736 -32 0
v -768 -64 0
v -800 -64 0
v -800 -32 0
v -768 -32 0
v -800 -64 0
v -832 -64 0
v -832 -32 0
v -800 -32 0
v -832 -64 0
v -864 -64 0
v -864 -32 0
v -832 -32 0
v -864 -64 0
v -896 -64 0
v -896 -32 0
v -864 -32 0
v 0 -96 0
v -32 -96 0
v -32 -64 0
v 0 -64 0
v -32 -96 0
v -64 -96 0
v -64 -64 0
v -32 -64 0
v -64 -96 0
v -96 -96 0
v -96 -64 0
v -64 -64 0
v -96 -96 0
v -128 -96 0
v -128 -64 0
v -96 -64 0
v -128 -96 0
v -160 -96 0
v -160 -64 0
v -128 -64 0
v -736 -96 0
v -768 -96 0
v -768 -64 0
v -736 -64 0
v -768 -96 0
v -800 -96 0
v -800 -64 0
v -768 -64 0
v -800 -96 0
v -832 -96 0
v -832 -64 0
v -800 -64 0
v -832 -96 0
v -864 -96 0
v -864 -64 0
v -832 -64 0
v -864 -96 0
v -896 -96 0
v -896 -64 0
v -864 -64 0
v 0 -128 0
v -32 -128 0
v -32 -96 0
v 0 -96 0
v -32 -128 0
v -64 -128 0
v -64 -96 0
v -32 -96 0
v -64 -128 0
v -96 -128 0
v -96 -96 0
v -64 -96 0
v -96 -128 0
v -128 -128 0
v -128 -96 0
v -96 -96 0
v -128 -128 0
v -160 -128 0
v -160 -96 0
v -128 -96 0
v -192 -128 0
v -224 -128 0
v -224 -96 0
v -192 -96 0
v -224 -128 0
v -256 -128 0
v -256 -96 0
v -224 -96 0
v -256 -128 0
v -288 -128 0
v -288 -96 0
v -256 -96 0
v -288 -128 0
v -320 -128 0
v -320 -96 0
v -288 -96 0
v -320 -128 0
v -352 -128 0
v -352 -96 0
v -320 -96 0
v -352 -128 0
v -384 -128 0
v -384 -96 0
v -352 -96 0
v -384 -128 0
v -416 -128 0
v -416 -96 0
v -384 -96 0
v -416 -128 0
v -448 -128 0
v -448 -96 0
v -416 -96 0
v -448 -128 0
v -480 -128 0
v -480 -96 0
v -448 -96 0
v -480 -128 0
v -512 -128 0
v -512 -96 0
v -480 -96 0
v -512 -128 0
v -544 -128 0
v -544 -96 0
v -512 -96 0
v -544 -128 0
v -576 -128 0
v -576 -96 0
v -544 -96 0
v -576 -128 0
v -608 -128 0
v -608 -96 0
v -576 -96 0
v -608 -128 0
v -640 -128 0
v -640 -96 0
v -608 -96 0
v -640 -128 0
v -672 -128 0
v -672 -96 0
v -640 -96 0
v -672 -128 0
v -704 -128 0
v -704 -96 0
v -672 -96 0
v -704 -128 0
v -736 -128 0
v -736 -96 0
v -704 -96 0
v -736 -128 0
v -768 -128 0
v -768 -96 0
v -736 -96 0
v -768 -128 0
v -800 -128 0
v -800 -96 0
v -768 -96 0
v -800 -128 0
v -832 -128 0
v -832 -96 0
v -800 -96 0
v -832 -128 0
v -864 -128 0
v -864 -96 0
v -832 -96 0
v -864 -128 0
v -896 -128 0
v -896 -96 0
v -864 -96 0
v 0 -160 0
v -32 -160 0
v -32 -128 0
v 0 -128 0
v -32 -160 0
v -64 -160 0
v -64 -128 0
v -32 -128 0
v -64 -160 0
v -96 -160 0
v -96 -128 0
v -64 -128 0
v -96 -160 0
v -128 -160 0
v -128 -128 0
v -96 -128 0
v -128 -160 0
v -160 -160 0
v -160 -128 0
v -128 -128 0
v -192 -160 0
v -224 -160 0
v -224 -128 0
v -192 -128 0
v -224 -160 0
v -256 -160 0
v -256 -128 0
v -224 -128 0
v -256 -160 0
v -288 -160 0
v -288 -128 0
v -256 -128 0
v -288 -160 0
v -320 -160 0
v -320 -128 0
v -288 -128 0
v -320 -160 0
v -352 -160 0
v -352 -128 0
v -320 -128 0
v -352 -160 0
v -384 -160 0
v -384 -128 0
v -352 -128 0
v -384 -160 0
v -416 -160 0
v -416 -128 0
v -384 -128 0
v -416 -160 0
v -448 -160 0
v -448 -128 0
v -416 -128 0
v -448 -160 0
v -480 -160 0
v -480 -128 0
v -448 -128 0
v -480 -160 0
v -512 -160 0
v -512 -128 0
v -480 -128 0
v -512 -160 0
v -544 -160 0
v -544 -128 0
v -512 -128 0
v -544 -160 0
v -576 -160 0
v -576 -128 0
v -544 -128 0
v -576 -160 0
v -608 -160 0
v -608 -128 0
v -576 -128 0
v -608 -160 0
v -640 -160 0
v -640 -128 0
v -608 -128 0
v -640 -160 0
v -672 -160 0
v -672 -128 0
v -640 -128 0
v -672 -160 0
v -704 -160 0
v -704 -128 0
v -672 -128 0
v -704 -160 0
v -736 -160 0
v -736 -128 0
v -704 -128 0
v -736 -160 0
v -768 -160 0
v -768 -128 0
v -736 -128 0
v -768 -160 0
v -800 -160 0
v -800 -128 0
v -768 -128 0
v -800 -160 0
v -832 -160 0
v -832 -128 0
v -800 -128 0
v -832 -160 0
v -864 -160 0
v -864 -128 0
v -832 -128 0
v -864 -160 0
v -896 -160 0
v -896 -128 0
v -864 -128 0
v 0 -192 0
v -32 -192 0
v -32 -160 0
v 0 -160 0
v -32 -192 0
v -64 -192 0
v -64 -160 0
v -32 -160 0
v -64 -192 0
v -96 -192 0
v -96 -160 0
v -64 -160 0
v -96 -192 0
v -128 -192 0
v -128 -160 0
v -96 -160 0
v -128 -192 0
v -160 -192 0
v -160 -160 0
v -128 -160 0
v -192 -192 0
v -224 -192 0
v -224 -160 0
v -192 -160 0
v -224 -192 0
v -256 -192 0
v -256 -160 0
v -224 -160 0
v -256 -192 0
v -288 -192 0
v -288 -160 0
v -256 -160 0
v -288 -192 0
v -320 -192 0
v -320 -160 0
v -288 -160 0
v -320 -192 0
v -352 -192 0
v -352 -160 0
v -320 -160 0
v -352 -192 0
v -384 -192 0
v -384 -160 0
v -352 -160 0
v -384 -192 0
v -416 -192 0
v -416 -160 0
v -384 -160 0
v -416 -192 0
v -448 -192 0
v -448 -160 0
v -416 -160 0
v -448 -192 0
v -480 -192 0
v -480 -160 0
v -448 -160 0
v -480 -192 0
v -512 -192 0
v -512 -160 0
v -480 -160 0
v -512 -192 0
v -544 -192 0
v -544 -160 0
v -512 -160 0
v -544 -192 0
v -576 -192 0
v -576 -160 0
v -544 -160 0
v -576 -192 0
v -608 -192 0
v -608 -160 0
v -576 -160 0
v -608 -192 0
v -640 -192 0
v -640 -160 0
v -608 -160 0
v -640 -192 0
v -672 -192 0
v -672 -160 0
v -640 -160 0
v -672 -192 0
v -704 -192 0
v -704 -160 0
v -672 -160 0
v -704 -192 0
v -736 -192 0
v -736 -160 0
v -704 -160 0
v 0 -224 0
v -32 -224 0
v -32 -192 0
v 0 -192 0
v -32 -224 0
v -64 -224 0
v -64 -192 0
v -32 -192 0
v -64 -224 0
v -96 -224 0
v -96 -192 0
v -64 -192 0
v -96 -224 0
v -128 -224 0
v -128 -192 0
v -96 -192 0
v -128 -224 0
v -160 -224 0
v -160 -192 0
v -128 -192 0
v -192 -224 0
v -224 -224 0
v -224 -192 0
v -192 -192 0
v -224 -224 0
v -256 -224 0
v -256 -192 0
v -224 -192 0
v -256 -224 0
v -288 -224 0
v -288 -192 0
v -256 -192 0
v -288 -224 0
v -320 -224 0
v -320 -192 0
v -288 -192 0
v -320 -224 0
v -352 -224 0
v -352 -192 0
v -320 -192 0
v -352 -224 0
v -384 -224 0
v -384 -192 0
v -352 -192 0
v -384 -224 0
v -416 -224 0
v -416 -192 0
v -384 -192 0
v -416 -224 0
v -448 -224 0
v -448 -192 0
v -416 -192 0
v -448 -224 0
v -480 -224 0
v -480 -192 0
v -448 -192 0
v -480 -224 0
v -512 -224 0
v -512 -192 0
v -480 -192 0
v -512 -224 0
v -544 -224 0
v -544 -192 0
v -512 -192 0
v -544 -224 0
v -576 -224 0
v -576 -192 0
v -544 -192 0
v -576 -224 0
v -608 -224 0
v -608 -192 0
v -576 -192 0
v -608 -224 0
v -640 -224 0
v -640 -192 0
v -608 -192 0
v -640 -224 0
v -672 -224 0
v -672 -192 0
v -640 -192 0
v -672 -224 0
v -704 -224 0
v -704 -192 0
v -672 -192 0
v -704 -224 0
v -736 -224 0
v -736 -192 0
v -704 -192 0
v -832 -224 0
v -864 -224 0
v -864 -192 0
v -832 -192 0
v -832 -256 0
v -864 -256 0
v -864 -224 0
v -832 -224 0
v -864 -256 0
v -896 -256 0
v -896 -224 0
v -864 -224 0
v -896 -256 0
v -928 -256 0
v -928 -224 0
v -896 -224 0
v -928 -256 0
v -960 -256 0
v -960 -224 0
v -928 -224 0
v -960 -256 0
v -992 -256 0
v -992 -224 0
v -960 -224 0
v -384 -288 0
v -416 -288 0
v -416 -256 0
v -384 -256 0
v -832 -288 0
v -864 -288 0
v -864 -256 0
v -832 -256 0
v -864 -288 0
v -896 -288 0
v -896 -256 0
v -864 -256 0
v -896 -288 0
v -928 -288 0
v -928 -256 0
v -896 -256 0
v -928 -288 0
v -960 -288 0
v -960 -256 0
v -928 -256 0
v -960 -288 0
v -992 -288 0
v -992 -256 0
v -960 -256 0
v -832 -320 0
v -864 -320 0
v -864 -288 0
v -832 -288 0
v -864 -320 0
v -896 -320 0
v -896 -288 0
v -864 -288 0
v -896 -320 0
v -928 -320 0
v -928 -288 0
v -896 -288 0
v -928 -320 0
v -960 -320 0
v -960 -288 0
v -928 -288 0
v -960 -320 0
v -992 -320 0
v -992 -288 0
v -960 -288 0
v 0 -352 0
v -32 -352 0
v -32 -320 0
v 0 -320 0
v -32 -352 0
v -64 -352 0
v -64 -320 0
v -32 -320 0
v -64 -352 0
v -96 -352 0
v -96 -320 0
v -64 -320 0
v -96 -352 0
v -128 -352 0
v -128 -320 0
v -96 -320 0
v -128 -352 0
v -160 -352 0
v -160 -320 0
v -128 -320 0
v -160 -352 0
v -192 -352 0
v -192 -320 0
v -160 -320 0
v -192 -352 0
v -224 -352 0
v -224 -320 0
v -192 -320 0
v -224 -352 0
v -256 -352 0
v -256 -320 0
v -224 -320 0
v -256 -352 0
v -288 -352 0
v -288 -320 0
v -256 -320 0
v -384 -352 0
v -416 -352 0
v -416 -320 0
v -384 -320 0
v -416 -352 0
v -448 -352 0
v -448 -320 0
v -416 -320 0
v -448 -352 0
v -480 -352 0
v -480 -320 0
v -448 -320 0
v -480 -352 0
v -512 -352 0
v -512 -320 0
v -480 -320 0
v -512 -352 0
v -544 -352 0
v -544 -320 0
v -512 -320 0
v -544 -352 0
v -576 -352 0
v -576 -320 0
v -544 -320 0
v -576 -352 0
v -608 -352 0
v -608 -320 0
v -576 -320 0
v -608 -352 0
v -640 -352 0
v -640 -320 0
v -608 -320 0
v -640 -352 0
v -672 -352 0
v -672 -320 0
v -640 -320 0
v -672 -352 0
v -704 -352 0
v -704 -320 0
v -672 -320 0
v -704 -352 0
v -736 -352 0
v -736 -320 0
v -704 -320 0
v -736 -352 0
v -768 -352 0
v -768 -320 0
v -736 -320 0
v -768 -352 0
v -800 -352 0
v -800 -320 0
v -768 -320 0
v -800 -352 0
v -832 -352 0
v -832 -320 0
v -800 -320 0
v -832 -352 0
v -864 -352 0
v -864 -320 0
v -832 -320 0
v -864 -352 0
v -896 -352 0
v -896 -320 0
v -864 -320 0
v -896 -352 0
v -928 -352 0
v -928 -320 0
v -896 -320 0
v -928 -352 0
v -960 -352 0
v -960 -320 0
v -928 -320 0
v -960 -352 0
v -992 -352 0
v -992 -320 0
v -960 -320 0
v 0 -384 0
v -32 -384 0
v -32 -352 0
v 0 -352 0
v -32 -384 0
v -64 -384 0
v -64 -352 0
v -32 -352 0
v -64 -384 0
v -96 -384 0
v -96 -352 0
v -64 -352 0
v -96 -384 0
v -128 -384 0
v -128 -352 0
v -96 -352 0
v -128 -384 0
v -160 -384 0
v -160 -352 0
v -128 -352 0
v -160 -384 0
v -192 -384 0
v -192 -352 0
v -160 -352 0
v -192 -384 0
v -224 -384 0
v -224 -352 0
v -192 -352 0
v -224 -384 0
v -256 -384 0
v -256 -352 0
v -224 -352 0
v -256 -384 0
v -288 -384 0
v -288 -352 0
v -256 -352 0
v -384 -384 0
v -416 -384 0
v -416 -352 0
v -384 -352 0
v -416 -384 0
v -448 -384 0
v -448 -352 0
v -416 -352 0
v -448 -384 0
v -480 -384 0
v -480 -352 0
v -448 -352 0
v -480 -384 0
v -512 -384 0
v -512 -352 0
v -480 -352 0
v -512 -384 0
v -544 -384 0
v -544 -352 0
v -512 -352 0
v -544 -384 0
v -576 -384 0
v -576 -352 0
v -544 -352 0
v -576 -384 0
v -608 -384 0
v -608 -352 0
v -576 -352 0
v -608 -384 0
v -640 -384 0
v -640 -352 0
v -608 -352 0
v -640 -384 0
v -672 -384 0
v -672 -352 0
v -640 -352 0
v -672 -384 0
v -704 -384 0
v -704 -352 0
v -672 -352 0
v -704 -384 0
v -736 -384 0
v -736 -352 0
v -704 -352 0
v -736 -384 0
v -768 -384 0
v -768 -352 0
v -736 -352 0
v -768 -384 0
v -800 -384 0
v -800 -352 0
v -768 -352 0
v -800 -384 0
v -832 -384 0
v -832 -352 0
v -800 -352 0
v -832 -384 0
v -864 -384 0
v -864 -352 0
v -832 -352 0
v -864 -384 0
v -896 -384 0
v -896 -352 0
v -864 -352 0
v -896 -384 0
v -928 -384 0
v -928 -352 0
v -896 -352 0
v -928 -384 0
v -960 -384 0
v -960 -352 0
v -928 -352 0
v -960 -384 0
v -992 -384 0
v -992 -352 0
v -960 -352 0
v 0 -416 0
v -32 -416 0
v -32 -384 0
v 0 -384 0
v -32 -416 0
v -64 -416 0
v -64 -384 0
v -32 -384 0
v -64 -416 0
v -96 -416 0
v -96 -384 0
v -64 -384 0
v -96 -416 0
v -128 -416 0
v -128 -384 0
v -96 -384 0
v -128 -416 0
v -160 -416 0
v -160 -384 0
v -128 -384 0
v -160 -416 0
v -192 -416 0
v -192 -384 0
v -160 -384 0
v -192 -416 0
v -224 -416 0
v -224 -384 0
v -192 -384 0
v -224 -416 0
v -256 -416 0
v -256 -384 0
v -224 -384 0
v -256 -416 0
v -288 -416 0
v -288 -384 0
v -256 -384 0
v -384 -416 0
v -416 -416 0
v -416 -384 0
v -384 -384 0
v -416 -416 0
v -448 -416 0
v -448 -384 0
v -416 -384 0
v -448 -416 0
v -480 -416 0
v -480 -384 0
v -448 -384 0
v -480 -416 0
v -512 -416 0
v -512 -384 0
v -480 -384 0
v -512 -416 0
v -544 -416 0
v -544 -384 0
v -512 -384 0
v -544 -416 0
v -576 -416 0
v -576 -384 0
v -544 -384 0
v -576 -416 0
v -608 -416 0
v -608 -384 0
v -576 -384 0
v -608 -416 0
v -640 -416 0
v -640 -384 0
v -608 -384 0
v -640 -416 0
v -672 -416 0
v -672 -384 0
v -640 -384 0
v -672 -416 0
v -704 -416 0
v -704 -384 0
v -672 -384 0
v -704 -416 0
v -736 -416 0
v -736 -384 0
v -704 -384 0
v -736 -416 0
v -768 -416 0
v -768 -384 0
v -736 -384 0
v -768 -416 0
v -800 -416 0
v -800 -384 0
v -768 -384 0
v -800 -416 0
v -832 -416 0
v -832 -384 0
v -800 -384 0
v 0 -448 0
v -32 -448 0
v -32 -416 0
v 0 -416 0
v -32 -448 0
v -64 -448 0
v -64 -416 0
v -32 -416 0
v -64 -448 0
v -96 -448 0
v -96 -416 0
v -64 -416 0
v -96 -448 0
v -128 -448 0
v -128 -416 0
v -96 -416 0
v -128 -448 0
v -160 -448 0
v -160 -416 0
v -128 -416 0
v -160 -448 0
v -192 -448 0
v -192 -416 0
v -160 -416 0
v -192 -448 0
v -224 -448 0
v -224 -416 0
v -192 -416 0
v -224 -448 0
v -256 -448 0
v -256 -416 0
v -224 -416 0
v -256 -448 0
v -288 -448 0
v -288 -416 0
v -256 -416 0
v -384 -448 0
v -416 -448 0
v -416 -416 0
v -384 -416 0
v -416 -448 0
v -448 -448 0
v -448 -416 0
v -416 -416 0
v -448 -448 0
v -480 -448 0
v -480 -416 0
v -448 -416 0
v -480 -448 0
v -512 -448 0
v -512 -416 0
v -480 -416 0
v -512 -448 0
v -544 -448 0
v -544 -416 0
v -512 -416 0
v -544 -448 0
v -576 -448 0
v -576 -416 0
v -544 -416 0
v -576 -448 0
v -608 -448 0
v -608 -416 0
v -576 -416 0
v -608 -448 0
v -640 -448 0
v -640 -416 0
v -608 -416 0
v -640 -448 0
v -672 -448 0
v -672 -416 0
v -640 -416 0
v -672 -448 0
v -704 -448 0
v -704 -416 0
v -672 -416 0
v -704 -448 0
v -736 -448 0
v -736 -416 0
v -704 -416 0
v -736 -448 0
v -768 -448 0
v -768 -416 0
v -736 -416 0
v -768 -448 0
v -800 -448 0
v -800 -416 0
v -768 -416 0
v -800 -448 0
v -832 -448 0
v -832 -416 0
v -800 -416 0
v 0 -480 0
v -32 -480 0
v -32 -448 0
v 0 -448 0
v -32 -480 0
v -64 -480 0
v -64 -448 0
v -32 -448 0
v -64 -480 0
v -96 -480 0
v -96 -448 0
v -64 -448 0
v -96 -480 0
v -128 -480 0
v -128 -448 0
v -96 -448 0
v -128 -480 0
v -160 -480 0
v -160 -448 0
v -128 -448 0
v -160 -480 0
v -192 -480 0
v -192 -448 0
v -160 -448 0
v -192 -480 0
v -224 -480 0
v -224 -448 0
v -192 -448 0
v -224 -480 0
v -256 -480 0
v -256 -448 0
v -224 -448 0
v -256 -480 0
v -288 -480 0
v -288 -448 0
v -256 -448 0
v -384 -480 0
v -416 -480 0
v -416 -448 0
v -384 -448 0
v -416 -480 0
v -448 -480 0
v -448 -448 0
v -416 -448 0
v -448 -480 0
v -480 -480 0
v -480 -448 0
v -448 -448 0
v -480 -480 0
v -512 -480 0
v -512 -448 0
v -480 -448 0
v -512 -480 0
v -544 -480 0
v -544 -448 0
v -512 -448 0
v -544 -480 0
v -576 -480 0
v -576 -448 0
v -544 -448 0
v -576 -480 0
v -608 -480 0
v -608 -448 0
v -576 -448 0
v -608 -480 0
v -640 -480 0
v -640 -448 0
v -608 -448 0
v -640 -480 0
v -672 -480 0
v -672 -448 0
v -640 -448 0
v -672 -480 0
v -704 -480 0
v -704 -448 0
v -672 -448 0
v -704 -480 0
v -736 -480 0
v -736 -448 0
v -704 -448 0
v -736 -480 0
v -768 -480 0
v -768 -448 0
v -736 -448 0
v -768 -480 0
v -800 -480 0
v -800 -448 0
v -768 -448 0
v -800 -480 0
v -832 -480 0
v -832 -448 0
v -800 -448 0

# Texture cooridinates (Count = 256)
vt 0.9688073 0.8821363
vt 0.9394495 0.8821363
vt 0.9394495 0.9410681
vt 0.9688073 0.9410681
vt 0.9100918 0.8821363
vt 0.9100918 0.9410681
vt 0.880734 0.8821363
vt 0.880734 0.9410681
vt 0.8513762 0.8821363
vt 0.8513762 0.9410681
vt 0.8220183 0.8821363
vt 0.8220183 0.9410681
vt 0.9688073 0.8232044
vt 0.9394495 0.8232044
vt 0.9100918 0.8232044
vt 0.880734 0.8232044
vt 0.8513762 0.8232044
vt 0.8220183 0.8232044
vt 0.8220183 0.587477
vt 0.8513762 0.587477
vt 0.8513762 0.6464089
vt 0.8220183 0.6464089
vt 0.880734 0.587477
vt 0.880734 0.6464089
vt 0.9100918 0.587477
vt 0.9100918 0.6464089
vt 0.9394495 0.587477
vt 0.9394495 0.6464089
vt 0.9688073 0.587477
vt 0.9688073 0.6464089
vt 0.9688073 0.7642726
vt 0.9394495 0.7642726
vt 0.9100918 0.7642726
vt 0.880734 0.7642726
vt 0.8513762 0.7642726
vt 0.8220183 0.7642726
vt 0.8220183 0.5285451
vt 0.8513762 0.5285451
vt 0.880734 0.5285451
vt 0.9100918 0.5285451
vt 0.9394495 0.5285451
vt 0.9688073 0.5285451
vt 0.4697248 0.2928177
vt 0.4990826 0.2928177
vt 0.4990826 0.3517495
vt 0.4697248 0.3517495
vt 0.5284404 0.2928177
vt 0.5284404 0.3517495
vt 0.5577981 0.2928177
vt 0.5577981 0.3517495
vt 0.5871559 0.2928177
vt 0.5871559 0.3517495
vt 0.6165138 0.2928177
vt 0.6165138 0.3517495
vt 0.6458716 0.2928177
vt 0.6458716 0.3517495
vt 0.6752294 0.2928177
vt 0.6752294 0.3517495
vt 0.7045872 0.2928177
vt 0.7045872 0.3517495
vt 0.733945 0.2928177
vt 0.733945 0.3517495
vt 0.7633027 0.2928177
vt 0.7633027 0.3517495
vt 0.7926605 0.2928177
vt 0.7926605 0.3517495
vt 0.8220183 0.2928177
vt 0.8220183 0.3517495
vt 0.8513762 0.2928177
vt 0.8513762 0.3517495
vt 0.880734 0.2928177
vt 0.880734 0.3517495
vt 0.9100918 0.2928177
vt 0.9100918 0.3517495
vt 0.9394495 0.2928177
vt 0.9394495 0.3517495
vt 0.9688073 0.2928177
vt 0.9688073 0.3517495
vt 0.9688073 0.7053407
vt 0.9394495 0.7053407
vt 0.9100918 0.7053407
vt 0.880734 0.7053407
vt 0.8513762 0.7053407
vt 0.8220183 0.7053407
vt 0.8220183 0.4696133
vt 0.8513762 0.4696133
vt 0.880734 0.4696133
vt 0.9100918 0.4696133
vt 0.9394495 0.4696133
vt 0.9688073 0.4696133
vt 0.4697248 0.2338858
vt 0.4990826 0.2338858
vt 0.5284404 0.2338858
vt 0.5577981 0.2338858
vt 0.5871559 0.2338858
vt 0.6165138 0.2338858
vt 0.6458716 0.2338858
vt 0.6752294 0.2338858
vt 0.7045872 0.2338858
vt 0.733945 0.2338858
vt 0.7633027 0.2338858
vt 0.7926605 0.2338858
vt 0.8220183 0.2338858
vt 0.8513762 0.2338858
vt 0.880734 0.2338858
vt 0.9100918 0.2338858
vt 0.9394495 0.2338858
vt 0.9688073 0.2338858
vt 0.8220183 0.4106814
vt 0.8513762 0.4106814
vt 0.880734 0.4106814
vt 0.9100918 0.4106814
vt 0.9394495 0.4106814
vt 0.9688073 0.4106814
vt 0.4697248 0.174954
vt 0.4990826 0.174954
vt 0.5284404 0.174954
vt 0.5577981 0.174954
vt 0.5871559 0.174954
vt 0.6165138 0.174954
vt 0.6458716 0.174954
vt 0.6752294 0.174954
vt 0.7045872 0.174954
vt 0.733945 0.174954
vt 0.7633027 0.174954
vt 0.7926605 0.174954
vt 0.8220183 0.174954
vt 0.8513762 0.174954
vt 0.880734 0.174954
vt 0.9100918 0.174954
vt 0.9394495 0.174954
vt 0.9688073 0.174954
vt 0.4697248 0.1160221
vt 0.4990826 0.1160221
vt 0.5284404 0.1160221
vt 0.5577981 0.1160221
vt 0.5871559 0.1160221
vt 0.6165138 0.1160221
vt 0.6458716 0.1160221
vt 0.6752294 0.1160221
vt 0.7045872 0.1160221
vt 0.733945 0.1160221
vt 0.7633027 0.1160221
vt 0.7926605 0.1160221
vt 0.8220183 0.1160221
vt 0.8513762 0.1160221
vt 0.880734 0.1160221
vt 0.9100918 0.1160221
vt 0.9394495 0.1160221
vt 0.9688073 0.1160221
vt 0.6752294 0.4106814
vt 0.7045872 0.4106814
vt 0.7045872 0.4696133
vt 0.6752294 0.4696133
vt 0.6752294 0.587477
vt 0.7045872 0.587477
vt 0.7045872 0.6464089
vt 0.6752294 0.6464089
vt 0.733945 0.587477
vt 0.733945 0.6464089
vt 0.7633027 0.587477
vt 0.7633027 0.6464089
vt 0.7926605 0.587477
vt 0.7926605 0.6464089
vt 0.440367 0.8821363
vt 0.4697248 0.8821363
vt 0.4697248 0.9410681
vt 0.440367 0.9410681
vt 0.6752294 0.5285451
vt 0.7045872 0.5285451
vt 0.733945 0.5285451
vt 0.7633027 0.5285451
vt 0.7926605 0.5285451
vt 0.733945 0.4696133
vt 0.7633027 0.4696133
vt 0.7926605 0.4696133
vt 0.4110092 0.8232044
vt 0.440367 0.8232044
vt 0.4110092 0.8821363
vt 0.4697248 0.8232044
vt 0.4990826 0.8232044
vt 0.4990826 0.8821363
vt 0.5284404 0.8232044
vt 0.5284404 0.8821363
vt 0.5577981 0.8232044
vt 0.5577981 0.8821363
vt 0.5871559 0.8232044
vt 0.5871559 0.8821363
vt 0.6165138 0.8232044
vt 0.6165138 0.8821363
vt 0.6458716 0.8232044
vt 0.6458716 0.8821363
vt 0.6752294 0.8232044
vt 0.6752294 0.8821363
vt 0.7045872 0.8821363
vt 0.7045872 0.9410681
vt 0.6752294 0.9410681
vt 0.733945 0.8821363
vt 0.733945 0.9410681
vt 0.7633027 0.8821363
vt 0.7633027 0.9410681
vt 0.7926605 0.8821363
vt 0.7926605 0.9410681
vt 0.733945 0.4106814
vt 0.7633027 0.4106814
vt 0.7926605 0.4106814
vt 0.4110092 0.7642726
vt 0.440367 0.7642726
vt 0.4697248 0.7642726
vt 0.4990826 0.7642726
vt 0.5284404 0.7642726
vt 0.5577981 0.7642726
vt 0.5871559 0.7642726
vt 0.6165138 0.7642726
vt 0.6458716 0.7642726
vt 0.6752294 0.7642726
vt 0.7045872 0.8232044
vt 0.733945 0.8232044
vt 0.7633027 0.8232044
vt 0.7926605 0.8232044
vt 0.4110092 0.7053407
vt 0.440367 0.7053407
vt 0.4697248 0.7053407
vt 0.4990826 0.7053407
vt 0.5284404 0.7053407
vt 0.5577981 0.7053407
vt 0.5871559 0.7053407
vt 0.6165138 0.7053407
vt 0.6458716 0.7053407
vt 0.6752294 0.7053407
vt 0.7045872 0.7642726
vt 0.733945 0.7642726
vt 0.7633027 0.7642726
vt 0.7926605 0.7642726
vt 0.4110092 0.6464089
vt 0.440367 0.6464089
vt 0.4697248 0.6464089
vt 0.4990826 0.6464089
vt 0.5284404 0.6464089
vt 0.5577981 0.6464089
vt 0.5871559 0.6464089
vt 0.6165138 0.6464089
vt 0.6458716 0.6464089
vt 0.7045872 0.7053407
vt 0.733945 0.7053407
vt 0.7633027 0.7053407
vt 0.7926605 0.7053407
vt 0.4110092 0.587477
vt 0.440367 0.587477
vt 0.4697248 0.587477
vt 0.4990826 0.587477
vt 0.5284404 0.587477
vt 0.5577981 0.587477
vt 0.5871559 0.587477
vt 0.6165138 0.587477
vt 0.6458716 0.587477

# Normal
vn 0 0 -1

# Mesh description
g Map1_mesh_0002

# Faces
f 1/1/1 2/2/1 3/3/1 4/4/1
f 5/2/1 6/5/1 7/6/1 8/3/1
f 9/5/1 10/7/1 11/8/1 12/6/1
f 13/7/1 14/9/1 15/10/1 16/8/1
f 17/9/1 18/11/1 19/12/1 20/10/1
f 21/13/1 22/14/1 23/2/1 24/1/1
f 25/14/1 26/15/1 27/5/1 28/2/1
f 29/15/1 30/16/1 31/7/1 32/5/1
f 33/16/1 34/17/1 35/9/1 36/7/1
f 37/17/1 38/18/1 39/11/1 40/9/1
f 41/19/1 42/20/1 43/21/1 44/22/1
f 45/20/1 46/23/1 47/24/1 48/21/1
f 49/23/1 50/25/1 51/26/1 52/24/1
f 53/25/1 54/27/1 55/28/1 56/26/1
f 57/27/1 58/29/1 59/30/1 60/28/1
f 61/31/1 62/32/1 63/14/1 64/13/1
f 65/32/1 66/33/1 67/15/1 68/14/1
f 69/33/1 70/34/1 71/16/1 72/15/1
f 73/34/1 74/35/1 75/17/1 76/16/1
f 77/35/1 78/36/1 79/18/1 80/17/1
f 81/37/1 82/38/1 83/20/1 84/19/1
f 85/38/1 86/39/1 87/23/1 88/20/1
f 89/39/1 90/40/1 91/25/1 92/23/1
f 93/40/1 94/41/1 95/27/1 96/25/1
f 97/41/1 98/42/1 99/29/1 100/27/1
f 101/43/1 102/44/1 103/45/1 104/46/1
f 105/44/1 106/47/1 107/48/1 108/45/1
f 109/47/1 110/49/1 111/50/1 112/48/1
f 113/49/1 114/51/1 115/52/1 116/50/1
f 117/51/1 118/53/1 119/54/1 120/52/1
f 121/53/1 122/55/1 123/56/1 124/54/1
f 125/55/1 126/57/1 127/58/1 128/56/1
f 129/57/1 130/59/1 131/60/1 132/58/1
f 133/59/1 134/61/1 135/62/1 136/60/1
f 137/61/1 138/63/1 139/64/1 140/62/1
f 141/63/1 142/65/1 143/66/1 144/64/1
f 145/65/1 146/67/1 147/68/1 148/66/1
f 149/67/1 150/69/1 151/70/1 152/68/1
f 153/69/1 154/71/1 155/72/1 156/70/1
f 157/71/1 158/73/1 159/74/1 160/72/1
f 161/73/1 162/75/1 163/76/1 164/74/1
f 165/75/1 166/77/1 167/78/1 168/76/1
f 169/79/1 170/80/1 171/32/1 172/31/1
f 173/80/1 174/81/1 175/33/1 176/32/1
f 177/81/1 178/82/1 179/34/1 180/33/1
f 181/82/1 182/83/1 183/35/1 184/34/1
f 185/83/1 186/84/1 187/36/1 188/35/1
f 189/85/1 190/86/1 191/38/1 192/37/1
f 193/86/1 194/87/1 195/39/1 196/38/1
f 197/87/1 198/88/1 199/40/1 200/39/1
f 201/88/1 202/89/1 203/41/1 204/40/1
f 205/89/1 206/90/1 207/42/1 208/41/1
f 209/91/1 210/92/1 211/44/1 212/43/1
f 213/92/1 214/93/1 215/47/1 216/44/1
f 217/93/1 218/94/1 219/49/1 220/47/1
f 221/94/1 222/95/1 223/51/1 224/49/1
f 225/95/1 226/96/1 227/53/1 228/51/1
f 229/96/1 230/97/1 231/55/1 232/53/1
f 233/97/1 234/98/1 235/57/1 236/55/1
f 237/98/1 238/99/1 239/59/1 240/57/1
f 241/99/1 242/100/1 243/61/1 244/59/1
f 245/100/1 246/101/1 247/63/1 248/61/1
f 249/101/1 250/102/1 251/65/1 252/63/1
f 253/102/1 254/103/1 255/67/1 256/65/1
f 257/103/1 258/104/1 259/69/1 260/67/1
f 261/104/1 262/105/1 263/71/1 264/69/1
f 265/105/1 266/106/1 267/73/1 268/71/1
f 269/106/1 270/107/1 271/75/1 272/73/1
f 273/107/1 274/108/1 275/77/1 276/75/1
f 277/30/1 278/28/1 279/80/1 280/79/1
f 281/28/1 282/26/1 283/81/1 284/80/1
f 285/26/1 286/24/1 287/82/1 288/81/1
f 289/24/1 290/21/1 291/83/1 292/82/1
f 293/21/1 294/22/1 295/84/1 296/83/1
f 297/109/1 298/110/1 299/86/1 300/85/1
f 301/110/1 302/111/1 303/87/1 304/86/1
f 305/111/1 306/112/1 307/88/1 308/87/1
f 309/112/1 310/113/1 311/89/1 312/88/1
f 313/113/1 314/114/1 315/90/1 316/89/1
f 317/115/1 318/116/1 319/92/1 320/91/1
f 321/116/1 322/117/1 323/93/1 324/92/1
f 325/117/1 326/118/1 327/94/1 328/93/1
f 329/118/1 330/119/1 331/95/1 332/94/1
f 333/119/1 334/120/1 335/96/1 336/95/1
f 337/120/1 338/121/1 339/97/1 340/96/1
f 341/121/1 342/122/1 343/98/1 344/97/1
f 345/122/1 346/123/1 347/99/1 348/98/1
f 349/123/1 350/124/1 351/100/1 352/99/1
f 353/124/1 354/125/1 355/101/1 356/100/1
f 357/125/1 358/126/1 359/102/1 360/101/1
f 361/126/1 362/127/1 363/103/1 364/102/1
f 365/127/1 366/128/1 367/104/1 368/103/1
f 369/128/1 370/129/1 371/105/1 372/104/1
f 373/129/1 374/130/1 375/106/1 376/105/1
f 377/130/1 378/131/1 379/107/1 380/106/1
f 381/131/1 382/132/1 383/108/1 384/107/1
f 385/68/1 386/70/1 387/110/1 388/109/1
f 389/70/1 390/72/1 391/111/1 392/110/1
f 393/72/1 394/74/1 395/112/1 396/111/1
f 397/74/1 398/76/1 399/113/1 400/112/1
f 401/76/1 402/78/1 403/114/1 404/113/1
f 405/133/1 406/134/1 407/116/1 408/115/1
f 409/134/1 410/135/1 411/117/1 412/116/1
f 413/135/1 414/136/1 415/118/1 416/117/1
f 417/136/1 418/137/1 419/119/1 420/118/1
f 421/137/1 422/138/1 423/120/1 424/119/1
f 425/138/1 426/139/1 427/121/1 428/120/1
f 429/139/1 430/140/1 431/122/1 432/121/1
f 433/140/1 434/141/1 435/123/1 436/122/1
f 437/141/1 438/142/1 439/124/1 440/123/1
f 441/142/1 442/143/1 443/125/1 444/124/1
f 445/143/1 446/144/1 447/126/1 448/125/1
f 449/144/1 450/145/1 451/127/1 452/126/1
f 453/145/1 454/146/1 455/128/1 456/127/1
f 457/146/1 458/147/1 459/129/1 460/128/1
f 461/147/1 462/148/1 463/130/1 464/129/1
f 465/148/1 466/149/1 467/131/1 468/130/1
f 469/149/1 470/150/1 471/132/1 472/131/1
f 473/151/1 474/152/1 475/153/1 476/154/1
f 477/155/1 478/156/1 479/157/1 480/158/1
f 481/156/1 482/159/1 483/160/1 484/157/1
f 485/159/1 486/161/1 487/162/1 488/160/1
f 489/161/1 490/163/1 491/164/1 492/162/1
f 493/163/1 494/19/1 495/22/1 496/164/1
f 497/165/1 498/166/1 499/167/1 500/168/1
f 501/169/1 502/170/1 503/156/1 504/155/1
f 505/170/1 506/171/1 507/159/1 508/156/1
f 509/171/1 510/172/1 511/161/1 512/159/1
f 513/172/1 514/173/1 515/163/1 516/161/1
f 517/173/1 518/37/1 519/19/1 520/163/1
f 521/154/1 522/153/1 523/170/1 524/169/1
f 525/153/1 526/174/1 527/171/1 528/170/1
f 529/174/1 530/175/1 531/172/1 532/171/1
f 533/175/1 534/176/1 535/173/1 536/172/1
f 537/176/1 538/85/1 539/37/1 540/173/1
f 541/177/1 542/178/1 543/165/1 544/179/1
f 545/178/1 546/180/1 547/166/1 548/165/1
f 549/180/1 550/181/1 551/182/1 552/166/1
f 553/181/1 554/183/1 555/184/1 556/182/1
f 557/183/1 558/185/1 559/186/1 560/184/1
f 561/185/1 562/187/1 563/188/1 564/186/1
f 565/187/1 566/189/1 567/190/1 568/188/1
f 569/189/1 570/191/1 571/192/1 572/190/1
f 573/191/1 574/193/1 575/194/1 576/192/1
f 577/177/1 578/178/1 579/165/1 580/179/1
f 581/178/1 582/180/1 583/166/1 584/165/1
f 585/180/1 586/181/1 587/182/1 588/166/1
f 589/181/1 590/183/1 591/184/1 592/182/1
f 593/183/1 594/185/1 595/186/1 596/184/1
f 597/185/1 598/187/1 599/188/1 600/186/1
f 601/187/1 602/189/1 603/190/1 604/188/1
f 605/189/1 606/191/1 607/192/1 608/190/1
f 609/191/1 610/193/1 611/194/1 612/192/1
f 613/194/1 614/195/1 615/196/1 616/197/1
f 617/195/1 618/198/1 619/199/1 620/196/1
f 621/198/1 622/200/1 623/201/1 624/199/1
f 625/200/1 626/202/1 627/203/1 628/201/1
f 629/202/1 630/11/1 631/12/1 632/203/1
f 633/151/1 634/152/1 635/153/1 636/154/1
f 637/152/1 638/204/1 639/174/1 640/153/1
f 641/204/1 642/205/1 643/175/1 644/174/1
f 645/205/1 646/206/1 647/176/1 648/175/1
f 649/206/1 650/109/1 651/85/1 652/176/1
f 653/207/1 654/208/1 655/178/1 656/177/1
f 657/208/1 658/209/1 659/180/1 660/178/1
f 661/209/1 662/210/1 663/181/1 664/180/1
f 665/210/1 666/211/1 667/183/1 668/181/1
f 669/211/1 670/212/1 671/185/1 672/183/1
f 673/212/1 674/213/1 675/187/1 676/185/1
f 677/213/1 678/214/1 679/189/1 680/187/1
f 681/214/1 682/215/1 683/191/1 684/189/1
f 685/215/1 686/216/1 687/193/1 688/191/1
f 689/207/1 690/208/1 691/178/1 692/177/1
f 693/208/1 694/209/1 695/180/1 696/178/1
f 697/209/1 698/210/1 699/181/1 700/180/1
f 701/210/1 702/211/1 703/183/1 704/181/1
f 705/211/1 706/212/1 707/185/1 708/183/1
f 709/212/1 710/213/1 711/187/1 712/185/1
f 713/213/1 714/214/1 715/189/1 716/187/1
f 717/214/1 718/215/1 719/191/1 720/189/1
f 721/215/1 722/216/1 723/193/1 724/191/1
f 725/193/1 726/217/1 727/195/1 728/194/1
f 729/217/1 730/218/1 731/198/1 732/195/1
f 733/218/1 734/219/1 735/200/1 736/198/1
f 737/219/1 738/220/1 739/202/1 740/200/1
f 741/220/1 742/18/1 743/11/1 744/202/1
f 745/58/1 746/60/1 747/152/1 748/151/1
f 749/60/1 750/62/1 751/204/1 752/152/1
f 753/62/1 754/64/1 755/205/1 756/204/1
f 757/64/1 758/66/1 759/206/1 760/205/1
f 761/66/1 762/68/1 763/109/1 764/206/1
f 765/221/1 766/222/1 767/208/1 768/207/1
f 769/222/1 770/223/1 771/209/1 772/208/1
f 773/223/1 774/224/1 775/210/1 776/209/1
f 777/224/1 778/225/1 779/211/1 780/210/1
f 781/225/1 782/226/1 783/212/1 784/211/1
f 785/226/1 786/227/1 787/213/1 788/212/1
f 789/227/1 790/228/1 791/214/1 792/213/1
f 793/228/1 794/229/1 795/215/1 796/214/1
f 797/229/1 798/230/1 799/216/1 800/215/1
f 801/221/1 802/222/1 803/208/1 804/207/1
f 805/222/1 806/223/1 807/209/1 808/208/1
f 809/223/1 810/224/1 811/210/1 812/209/1
f 813/224/1 814/225/1 815/211/1 816/210/1
f 817/225/1 818/226/1 819/212/1 820/211/1
f 821/226/1 822/227/1 823/213/1 824/212/1
f 825/227/1 826/228/1 827/214/1 828/213/1
f 829/228/1 830/229/1 831/215/1 832/214/1
f 833/229/1 834/230/1 835/216/1 836/215/1
f 837/216/1 838/231/1 839/217/1 840/193/1
f 841/231/1 842/232/1 843/218/1 844/217/1
f 845/232/1 846/233/1 847/219/1 848/218/1
f 849/233/1 850/234/1 851/220/1 852/219/1
f 853/234/1 854/36/1 855/18/1 856/220/1
f 857/235/1 858/236/1 859/222/1 860/221/1
f 861/236/1 862/237/1 863/223/1 864/222/1
f 865/237/1 866/238/1 867/224/1 868/223/1
f 869/238/1 870/239/1 871/225/1 872/224/1
f 873/239/1 874/240/1 875/226/1 876/225/1
f 877/240/1 878/241/1 879/227/1 880/226/1
f 881/241/1 882/242/1 883/228/1 884/227/1
f 885/242/1 886/243/1 887/229/1 888/228/1
f 889/243/1 890/158/1 891/230/1 892/229/1
f 893/235/1 894/236/1 895/222/1 896/221/1
f 897/236/1 898/237/1 899/223/1 900/222/1
f 901/237/1 902/238/1 903/224/1 904/223/1
f 905/238/1 906/239/1 907/225/1 908/224/1
f 909/239/1 910/240/1 911/226/1 912/225/1
f 913/240/1 914/241/1 915/227/1 916/226/1
f 917/241/1 918/242/1 919/228/1 920/227/1
f 921/242/1 922/243/1 923/229/1 924/228/1
f 925/243/1 926/158/1 927/230/1 928/229/1
f 929/230/1 930/244/1 931/231/1 932/216/1
f 933/244/1 934/245/1 935/232/1 936/231/1
f 937/245/1 938/246/1 939/233/1 940/232/1
f 941/246/1 942/247/1 943/234/1 944/233/1
f 945/247/1 946/84/1 947/36/1 948/234/1
f 949/248/1 950/249/1 951/236/1 952/235/1
f 953/249/1 954/250/1 955/237/1 956/236/1
f 957/250/1 958/251/1 959/238/1 960/237/1
f 961/251/1 962/252/1 963/239/1 964/238/1
f 965/252/1 966/253/1 967/240/1 968/239/1
f 969/253/1 970/254/1 971/241/1 972/240/1
f 973/254/1 974/255/1 975/242/1 976/241/1
f 977/255/1 978/256/1 979/243/1 980/242/1
f 981/256/1 982/155/1 983/158/1 984/243/1
f 985/248/1 986/249/1 987/236/1 988/235/1
f 989/249/1 990/250/1 991/237/1 992/236/1
f 993/250/1 994/251/1 995/238/1 996/237/1
f 997/251/1 998/252/1 999/239/1 1000/238/1
f 1001/252/1 1002/253/1 1003/240/1 1004/239/1
f 1005/253/1 1006/254/1 1007/241/1 1008/240/1
f 1009/254/1 1010/255/1 1011/242/1 1012/241/1
f 1013/255/1 1014/256/1 1015/243/1 1016/242/1
f 1017/256/1 1018/155/1 1019/158/1 1020/243/1
f 1021/158/1 1022/157/1 1023/244/1 1024/230/1
f 1025/157/1 1026/160/1 1027/245/1 1028/244/1
f 1029/160/1 1030/162/1 1031/246/1 1032/245/1
f 1033/162/1 1034/164/1 1035/247/1 1036/246/1
f 1037/164/1 1038/22/1 1039/84/1 1040/247/1

