﻿# Tiled2Unity generated file. Do not modify by hand.
# Wavefront file for 'Map2_mesh_0002.obj'

# Vertices (Count = 876)
v -928 -96 0
v -960 -96 0
v -960 -64 0
v -928 -64 0
v -960 -96 0
v -992 -96 0
v -992 -64 0
v -960 -64 0
v -992 -96 0
v -1024 -96 0
v -1024 -64 0
v -992 -64 0
v -32 -128 0
v -64 -128 0
v -64 -96 0
v -32 -96 0
v -64 -128 0
v -96 -128 0
v -96 -96 0
v -64 -96 0
v -96 -128 0
v -128 -128 0
v -128 -96 0
v -96 -96 0
v -128 -128 0
v -160 -128 0
v -160 -96 0
v -128 -96 0
v -160 -128 0
v -192 -128 0
v -192 -96 0
v -160 -96 0
v -192 -128 0
v -224 -128 0
v -224 -96 0
v -192 -96 0
v -224 -128 0
v -256 -128 0
v -256 -96 0
v -224 -96 0
v -256 -128 0
v -288 -128 0
v -288 -96 0
v -256 -96 0
v -288 -128 0
v -320 -128 0
v -320 -96 0
v -288 -96 0
v -320 -128 0
v -352 -128 0
v -352 -96 0
v -320 -96 0
v -352 -128 0
v -384 -128 0
v -384 -96 0
v -352 -96 0
v -384 -128 0
v -416 -128 0
v -416 -96 0
v -384 -96 0
v -416 -128 0
v -448 -128 0
v -448 -96 0
v -416 -96 0
v -448 -128 0
v -480 -128 0
v -480 -96 0
v -448 -96 0
v -512 -128 0
v -544 -128 0
v -544 -96 0
v -512 -96 0
v -704 -128 0
v -736 -128 0
v -736 -96 0
v -704 -96 0
v -736 -128 0
v -768 -128 0
v -768 -96 0
v -736 -96 0
v -768 -128 0
v -800 -128 0
v -800 -96 0
v -768 -96 0
v -800 -128 0
v -832 -128 0
v -832 -96 0
v -800 -96 0
v -832 -128 0
v -864 -128 0
v -864 -96 0
v -832 -96 0
v -864 -128 0
v -896 -128 0
v -896 -96 0
v -864 -96 0
v -896 -128 0
v -928 -128 0
v -928 -96 0
v -896 -96 0
v -928 -128 0
v -960 -128 0
v -960 -96 0
v -928 -96 0
v -960 -128 0
v -992 -128 0
v -992 -96 0
v -960 -96 0
v -992 -128 0
v -1024 -128 0
v -1024 -96 0
v -992 -96 0
v -32 -160 0
v -64 -160 0
v -64 -128 0
v -32 -128 0
v -64 -160 0
v -96 -160 0
v -96 -128 0
v -64 -128 0
v -96 -160 0
v -128 -160 0
v -128 -128 0
v -96 -128 0
v -128 -160 0
v -160 -160 0
v -160 -128 0
v -128 -128 0
v -160 -160 0
v -192 -160 0
v -192 -128 0
v -160 -128 0
v -192 -160 0
v -224 -160 0
v -224 -128 0
v -192 -128 0
v -224 -160 0
v -256 -160 0
v -256 -128 0
v -224 -128 0
v -256 -160 0
v -288 -160 0
v -288 -128 0
v -256 -128 0
v -288 -160 0
v -320 -160 0
v -320 -128 0
v -288 -128 0
v -320 -160 0
v -352 -160 0
v -352 -128 0
v -320 -128 0
v -352 -160 0
v -384 -160 0
v -384 -128 0
v -352 -128 0
v -384 -160 0
v -416 -160 0
v -416 -128 0
v -384 -128 0
v -416 -160 0
v -448 -160 0
v -448 -128 0
v -416 -128 0
v -448 -160 0
v -480 -160 0
v -480 -128 0
v -448 -128 0
v -512 -160 0
v -544 -160 0
v -544 -128 0
v -512 -128 0
v -544 -160 0
v -576 -160 0
v -576 -128 0
v -544 -128 0
v -576 -160 0
v -608 -160 0
v -608 -128 0
v -576 -128 0
v -608 -160 0
v -640 -160 0
v -640 -128 0
v -608 -128 0
v -640 -160 0
v -672 -160 0
v -672 -128 0
v -640 -128 0
v -672 -160 0
v -704 -160 0
v -704 -128 0
v -672 -128 0
v -704 -160 0
v -736 -160 0
v -736 -128 0
v -704 -128 0
v -736 -160 0
v -768 -160 0
v -768 -128 0
v -736 -128 0
v -768 -160 0
v -800 -160 0
v -800 -128 0
v -768 -128 0
v -800 -160 0
v -832 -160 0
v -832 -128 0
v -800 -128 0
v -832 -160 0
v -864 -160 0
v -864 -128 0
v -832 -128 0
v -864 -160 0
v -896 -160 0
v -896 -128 0
v -864 -128 0
v -896 -160 0
v -928 -160 0
v -928 -128 0
v -896 -128 0
v -32 -192 0
v -64 -192 0
v -64 -160 0
v -32 -160 0
v -64 -192 0
v -96 -192 0
v -96 -160 0
v -64 -160 0
v -96 -192 0
v -128 -192 0
v -128 -160 0
v -96 -160 0
v -128 -192 0
v -160 -192 0
v -160 -160 0
v -128 -160 0
v -160 -192 0
v -192 -192 0
v -192 -160 0
v -160 -160 0
v -192 -192 0
v -224 -192 0
v -224 -160 0
v -192 -160 0
v -224 -192 0
v -256 -192 0
v -256 -160 0
v -224 -160 0
v -256 -192 0
v -288 -192 0
v -288 -160 0
v -256 -160 0
v -288 -192 0
v -320 -192 0
v -320 -160 0
v -288 -160 0
v -320 -192 0
v -352 -192 0
v -352 -160 0
v -320 -160 0
v -352 -192 0
v -384 -192 0
v -384 -160 0
v -352 -160 0
v -384 -192 0
v -416 -192 0
v -416 -160 0
v -384 -160 0
v -416 -192 0
v -448 -192 0
v -448 -160 0
v -416 -160 0
v -448 -192 0
v -480 -192 0
v -480 -160 0
v -448 -160 0
v -512 -192 0
v -544 -192 0
v -544 -160 0
v -512 -160 0
v -544 -192 0
v -576 -192 0
v -576 -160 0
v -544 -160 0
v -576 -192 0
v -608 -192 0
v -608 -160 0
v -576 -160 0
v -608 -192 0
v -640 -192 0
v -640 -160 0
v -608 -160 0
v -640 -192 0
v -672 -192 0
v -672 -160 0
v -640 -160 0
v -672 -192 0
v -704 -192 0
v -704 -160 0
v -672 -160 0
v -704 -192 0
v -736 -192 0
v -736 -160 0
v -704 -160 0
v -736 -192 0
v -768 -192 0
v -768 -160 0
v -736 -160 0
v -768 -192 0
v -800 -192 0
v -800 -160 0
v -768 -160 0
v -800 -192 0
v -832 -192 0
v -832 -160 0
v -800 -160 0
v -832 -192 0
v -864 -192 0
v -864 -160 0
v -832 -160 0
v -864 -192 0
v -896 -192 0
v -896 -160 0
v -864 -160 0
v -896 -192 0
v -928 -192 0
v -928 -160 0
v -896 -160 0
v -32 -224 0
v -64 -224 0
v -64 -192 0
v -32 -192 0
v -64 -224 0
v -96 -224 0
v -96 -192 0
v -64 -192 0
v -96 -224 0
v -128 -224 0
v -128 -192 0
v -96 -192 0
v -128 -224 0
v -160 -224 0
v -160 -192 0
v -128 -192 0
v -160 -224 0
v -192 -224 0
v -192 -192 0
v -160 -192 0
v -192 -224 0
v -224 -224 0
v -224 -192 0
v -192 -192 0
v -224 -224 0
v -256 -224 0
v -256 -192 0
v -224 -192 0
v -256 -224 0
v -288 -224 0
v -288 -192 0
v -256 -192 0
v -288 -224 0
v -320 -224 0
v -320 -192 0
v -288 -192 0
v -320 -224 0
v -352 -224 0
v -352 -192 0
v -320 -192 0
v -352 -224 0
v -384 -224 0
v -384 -192 0
v -352 -192 0
v -384 -224 0
v -416 -224 0
v -416 -192 0
v -384 -192 0
v -416 -224 0
v -448 -224 0
v -448 -192 0
v -416 -192 0
v -448 -224 0
v -480 -224 0
v -480 -192 0
v -448 -192 0
v -512 -224 0
v -544 -224 0
v -544 -192 0
v -512 -192 0
v -544 -224 0
v -576 -224 0
v -576 -192 0
v -544 -192 0
v -576 -224 0
v -608 -224 0
v -608 -192 0
v -576 -192 0
v -608 -224 0
v -640 -224 0
v -640 -192 0
v -608 -192 0
v -640 -224 0
v -672 -224 0
v -672 -192 0
v -640 -192 0
v -672 -224 0
v -704 -224 0
v -704 -192 0
v -672 -192 0
v -32 -256 0
v -64 -256 0
v -64 -224 0
v -32 -224 0
v -64 -256 0
v -96 -256 0
v -96 -224 0
v -64 -224 0
v -96 -256 0
v -128 -256 0
v -128 -224 0
v -96 -224 0
v -128 -256 0
v -160 -256 0
v -160 -224 0
v -128 -224 0
v -160 -256 0
v -192 -256 0
v -192 -224 0
v -160 -224 0
v -192 -256 0
v -224 -256 0
v -224 -224 0
v -192 -224 0
v -224 -256 0
v -256 -256 0
v -256 -224 0
v -224 -224 0
v -256 -256 0
v -288 -256 0
v -288 -224 0
v -256 -224 0
v -288 -256 0
v -320 -256 0
v -320 -224 0
v -288 -224 0
v -320 -256 0
v -352 -256 0
v -352 -224 0
v -320 -224 0
v -352 -256 0
v -384 -256 0
v -384 -224 0
v -352 -224 0
v -384 -256 0
v -416 -256 0
v -416 -224 0
v -384 -224 0
v -32 -288 0
v -64 -288 0
v -64 -256 0
v -32 -256 0
v -64 -288 0
v -96 -288 0
v -96 -256 0
v -64 -256 0
v -96 -288 0
v -128 -288 0
v -128 -256 0
v -96 -256 0
v -128 -288 0
v -160 -288 0
v -160 -256 0
v -128 -256 0
v -160 -288 0
v -192 -288 0
v -192 -256 0
v -160 -256 0
v -192 -288 0
v -224 -288 0
v -224 -256 0
v -192 -256 0
v -224 -288 0
v -256 -288 0
v -256 -256 0
v -224 -256 0
v -256 -288 0
v -288 -288 0
v -288 -256 0
v -256 -256 0
v -288 -288 0
v -320 -288 0
v -320 -256 0
v -288 -256 0
v -320 -288 0
v -352 -288 0
v -352 -256 0
v -320 -256 0
v -352 -288 0
v -384 -288 0
v -384 -256 0
v -352 -256 0
v -384 -288 0
v -416 -288 0
v -416 -256 0
v -384 -256 0
v -448 -288 0
v -480 -288 0
v -480 -256 0
v -448 -256 0
v -480 -288 0
v -512 -288 0
v -512 -256 0
v -480 -256 0
v -512 -288 0
v -544 -288 0
v -544 -256 0
v -512 -256 0
v -544 -288 0
v -576 -288 0
v -576 -256 0
v -544 -256 0
v -576 -288 0
v -608 -288 0
v -608 -256 0
v -576 -256 0
v -608 -288 0
v -640 -288 0
v -640 -256 0
v -608 -256 0
v -640 -288 0
v -672 -288 0
v -672 -256 0
v -640 -256 0
v -672 -288 0
v -704 -288 0
v -704 -256 0
v -672 -256 0
v -704 -288 0
v -736 -288 0
v -736 -256 0
v -704 -256 0
v -736 -288 0
v -768 -288 0
v -768 -256 0
v -736 -256 0
v -768 -288 0
v -800 -288 0
v -800 -256 0
v -768 -256 0
v -800 -288 0
v -832 -288 0
v -832 -256 0
v -800 -256 0
v -832 -288 0
v -864 -288 0
v -864 -256 0
v -832 -256 0
v -864 -288 0
v -896 -288 0
v -896 -256 0
v -864 -256 0
v -896 -288 0
v -928 -288 0
v -928 -256 0
v -896 -256 0
v -32 -320 0
v -64 -320 0
v -64 -288 0
v -32 -288 0
v -64 -320 0
v -96 -320 0
v -96 -288 0
v -64 -288 0
v -96 -320 0
v -128 -320 0
v -128 -288 0
v -96 -288 0
v -128 -320 0
v -160 -320 0
v -160 -288 0
v -128 -288 0
v -160 -320 0
v -192 -320 0
v -192 -288 0
v -160 -288 0
v -192 -320 0
v -224 -320 0
v -224 -288 0
v -192 -288 0
v -224 -320 0
v -256 -320 0
v -256 -288 0
v -224 -288 0
v -256 -320 0
v -288 -320 0
v -288 -288 0
v -256 -288 0
v -288 -320 0
v -320 -320 0
v -320 -288 0
v -288 -288 0
v -320 -320 0
v -352 -320 0
v -352 -288 0
v -320 -288 0
v -352 -320 0
v -384 -320 0
v -384 -288 0
v -352 -288 0
v -384 -320 0
v -416 -320 0
v -416 -288 0
v -384 -288 0
v -448 -320 0
v -480 -320 0
v -480 -288 0
v -448 -288 0
v -480 -320 0
v -512 -320 0
v -512 -288 0
v -480 -288 0
v -512 -320 0
v -544 -320 0
v -544 -288 0
v -512 -288 0
v -544 -320 0
v -576 -320 0
v -576 -288 0
v -544 -288 0
v -576 -320 0
v -608 -320 0
v -608 -288 0
v -576 -288 0
v -608 -320 0
v -640 -320 0
v -640 -288 0
v -608 -288 0
v -640 -320 0
v -672 -320 0
v -672 -288 0
v -640 -288 0
v -672 -320 0
v -704 -320 0
v -704 -288 0
v -672 -288 0
v -704 -320 0
v -736 -320 0
v -736 -288 0
v -704 -288 0
v -736 -320 0
v -768 -320 0
v -768 -288 0
v -736 -288 0
v -768 -320 0
v -800 -320 0
v -800 -288 0
v -768 -288 0
v -800 -320 0
v -832 -320 0
v -832 -288 0
v -800 -288 0
v -832 -320 0
v -864 -320 0
v -864 -288 0
v -832 -288 0
v -864 -320 0
v -896 -320 0
v -896 -288 0
v -864 -288 0
v -896 -320 0
v -928 -320 0
v -928 -288 0
v -896 -288 0
v -32 -352 0
v -64 -352 0
v -64 -320 0
v -32 -320 0
v -64 -352 0
v -96 -352 0
v -96 -320 0
v -64 -320 0
v -96 -352 0
v -128 -352 0
v -128 -320 0
v -96 -320 0
v -128 -352 0
v -160 -352 0
v -160 -320 0
v -128 -320 0
v -160 -352 0
v -192 -352 0
v -192 -320 0
v -160 -320 0
v -192 -352 0
v -224 -352 0
v -224 -320 0
v -192 -320 0
v -224 -352 0
v -256 -352 0
v -256 -320 0
v -224 -320 0
v -256 -352 0
v -288 -352 0
v -288 -320 0
v -256 -320 0
v -288 -352 0
v -320 -352 0
v -320 -320 0
v -288 -320 0
v -320 -352 0
v -352 -352 0
v -352 -320 0
v -320 -320 0
v -352 -352 0
v -384 -352 0
v -384 -320 0
v -352 -320 0
v -384 -352 0
v -416 -352 0
v -416 -320 0
v -384 -320 0
v -448 -352 0
v -480 -352 0
v -480 -320 0
v -448 -320 0
v -32 -384 0
v -64 -384 0
v -64 -352 0
v -32 -352 0
v -64 -384 0
v -96 -384 0
v -96 -352 0
v -64 -352 0
v -96 -384 0
v -128 -384 0
v -128 -352 0
v -96 -352 0
v -128 -384 0
v -160 -384 0
v -160 -352 0
v -128 -352 0
v -160 -384 0
v -192 -384 0
v -192 -352 0
v -160 -352 0
v -192 -384 0
v -224 -384 0
v -224 -352 0
v -192 -352 0
v -224 -384 0
v -256 -384 0
v -256 -352 0
v -224 -352 0
v -256 -384 0
v -288 -384 0
v -288 -352 0
v -256 -352 0
v -288 -384 0
v -320 -384 0
v -320 -352 0
v -288 -352 0
v -320 -384 0
v -352 -384 0
v -352 -352 0
v -320 -352 0
v -352 -384 0
v -384 -384 0
v -384 -352 0
v -352 -352 0
v -384 -384 0
v -416 -384 0
v -416 -352 0
v -384 -352 0
v -512 -416 0
v -544 -416 0
v -544 -384 0
v -512 -384 0
v -544 -416 0
v -576 -416 0
v -576 -384 0
v -544 -384 0
v -576 -416 0
v -608 -416 0
v -608 -384 0
v -576 -384 0
v -608 -416 0
v -640 -416 0
v -640 -384 0
v -608 -384 0
v -640 -416 0
v -672 -416 0
v -672 -384 0
v -640 -384 0
v -736 -416 0
v -768 -416 0
v -768 -384 0
v -736 -384 0
v -768 -416 0
v -800 -416 0
v -800 -384 0
v -768 -384 0
v -800 -416 0
v -832 -416 0
v -832 -384 0
v -800 -384 0
v -832 -416 0
v -864 -416 0
v -864 -384 0
v -832 -384 0
v -864 -416 0
v -896 -416 0
v -896 -384 0
v -864 -384 0
v -896 -416 0
v -928 -416 0
v -928 -384 0
v -896 -384 0
v -928 -416 0
v -960 -416 0
v -960 -384 0
v -928 -384 0
v -960 -416 0
v -992 -416 0
v -992 -384 0
v -960 -384 0
v -992 -416 0
v -1024 -416 0
v -1024 -384 0
v -992 -384 0
v -544 -448 0
v -576 -448 0
v -576 -416 0
v -544 -416 0
v -576 -448 0
v -608 -448 0
v -608 -416 0
v -576 -416 0
v -608 -448 0
v -640 -448 0
v -640 -416 0
v -608 -416 0
v -640 -448 0
v -672 -448 0
v -672 -416 0
v -640 -416 0
v -672 -448 0
v -704 -448 0
v -704 -416 0
v -672 -416 0
v -704 -448 0
v -736 -448 0
v -736 -416 0
v -704 -416 0
v -736 -448 0
v -768 -448 0
v -768 -416 0
v -736 -416 0
v -768 -448 0
v -800 -448 0
v -800 -416 0
v -768 -416 0
v -928 -448 0
v -960 -448 0
v -960 -416 0
v -928 -416 0
v -960 -448 0
v -992 -448 0
v -992 -416 0
v -960 -416 0
v -992 -448 0
v -1024 -448 0
v -1024 -416 0
v -992 -416 0
v -1024 -448 0
v -1056 -448 0
v -1056 -416 0
v -1024 -416 0

# Texture cooridinates (Count = 241)
vt 0.0625 0.6875
vt 0.125 0.6875
vt 0.125 0.75
vt 0.0625 0.75
vt 0.1875 0.6875
vt 0.1875 0.75
vt 0.25 0.6875
vt 0.25 0.75
vt 0.0625 0.5
vt 0.125 0.5
vt 0.125 0.5625
vt 0.0625 0.5625
vt 0.1875 0.5
vt 0.1875 0.5625
vt 0.25 0.5
vt 0.25 0.5625
vt 0.3125 0.5
vt 0.3125 0.5625
vt 0.375 0.5
vt 0.375 0.5625
vt 0.4375 0.5
vt 0.4375 0.5625
vt 0.5 0.5
vt 0.5 0.5625
vt 0.5625 0.5
vt 0.5625 0.5625
vt 0.625 0.5
vt 0.625 0.5625
vt 0.6875 0.5
vt 0.6875 0.5625
vt 0.75 0.5
vt 0.75 0.5625
vt 0.8125 0.5
vt 0.8125 0.5625
vt 0.875 0.5
vt 0.875 0.5625
vt 0.9375 0.5
vt 0.9375 0.5625
vt 0 0.875
vt 0.0625 0.875
vt 0.0625 0.9375
vt 0 0.9375
vt 0.125 0.875
vt 0.125 0.9375
vt 0.1875 0.875
vt 0.1875 0.9375
vt 0.25 0.875
vt 0.25 0.9375
vt 0.3125 0.875
vt 0.3125 0.9375
vt 0.375 0.875
vt 0.375 0.9375
vt 0.4375 0.875
vt 0.4375 0.9375
vt 0.0625 0.625
vt 0.125 0.625
vt 0.1875 0.625
vt 0.25 0.625
vt 0.0625 0.4375
vt 0.125 0.4375
vt 0.1875 0.4375
vt 0.25 0.4375
vt 0.3125 0.4375
vt 0.375 0.4375
vt 0.4375 0.4375
vt 0.5 0.4375
vt 0.5625 0.4375
vt 0.625 0.4375
vt 0.6875 0.4375
vt 0.75 0.4375
vt 0.8125 0.4375
vt 0.875 0.4375
vt 0.9375 0.4375
vt 0.5625 0.875
vt 0.625 0.875
vt 0.625 0.9375
vt 0.5625 0.9375
vt 0.6875 0.875
vt 0.6875 0.9375
vt 0.75 0.875
vt 0.75 0.9375
vt 0.8125 0.875
vt 0.8125 0.9375
vt 0.875 0.875
vt 0.875 0.9375
vt 0.9375 0.875
vt 0.9375 0.9375
vt 0 0.8125
vt 0.0625 0.8125
vt 0.125 0.8125
vt 0.1875 0.8125
vt 0.25 0.8125
vt 0.3125 0.8125
vt 0.375 0.8125
vt 0.4375 0.8125
vt 0.0625 0.375
vt 0.125 0.375
vt 0.1875 0.375
vt 0.25 0.375
vt 0.3125 0.375
vt 0.375 0.375
vt 0.4375 0.375
vt 0.5 0.375
vt 0.5625 0.375
vt 0.625 0.375
vt 0.6875 0.375
vt 0.75 0.375
vt 0.8125 0.375
vt 0.875 0.375
vt 0.9375 0.375
vt 0.5625 0.8125
vt 0.625 0.8125
vt 0.6875 0.8125
vt 0.75 0.8125
vt 0.8125 0.8125
vt 0.875 0.8125
vt 0.9375 0.8125
vt 0 0.75
vt 0.3125 0.75
vt 0.375 0.75
vt 0.4375 0.75
vt 0.0625 0.3125
vt 0.125 0.3125
vt 0.1875 0.3125
vt 0.25 0.3125
vt 0.3125 0.3125
vt 0.375 0.3125
vt 0.4375 0.3125
vt 0.5 0.3125
vt 0.5625 0.3125
vt 0.625 0.3125
vt 0.6875 0.3125
vt 0.75 0.3125
vt 0.8125 0.3125
vt 0.875 0.3125
vt 0.9375 0.3125
vt 0.5625 0.75
vt 0.625 0.75
vt 0.6875 0.75
vt 0.75 0.75
vt 0.8125 0.75
vt 0.875 0.75
vt 0.9375 0.75
vt 0.0625 0.25
vt 0.125 0.25
vt 0.1875 0.25
vt 0.25 0.25
vt 0.3125 0.25
vt 0.375 0.25
vt 0.4375 0.25
vt 0.5 0.25
vt 0.5625 0.25
vt 0.625 0.25
vt 0.6875 0.25
vt 0.75 0.25
vt 0.8125 0.25
vt 0.0625 0.1875
vt 0.125 0.1875
vt 0.1875 0.1875
vt 0.25 0.1875
vt 0.3125 0.1875
vt 0.375 0.1875
vt 0.4375 0.1875
vt 0.5 0.1875
vt 0.5625 0.1875
vt 0.625 0.1875
vt 0.6875 0.1875
vt 0.75 0.1875
vt 0.8125 0.1875
vt 0.3125 0.6875
vt 0.375 0.6875
vt 0.4375 0.6875
vt 0.5 0.6875
vt 0.5 0.75
vt 0.5625 0.6875
vt 0.625 0.6875
vt 0.6875 0.6875
vt 0.75 0.6875
vt 0.8125 0.6875
vt 0.875 0.6875
vt 0.9375 0.6875
vt 1 0.6875
vt 1 0.75
vt 0.0625 0.125
vt 0.125 0.125
vt 0.1875 0.125
vt 0.25 0.125
vt 0.3125 0.125
vt 0.375 0.125
vt 0.4375 0.125
vt 0.5 0.125
vt 0.5625 0.125
vt 0.625 0.125
vt 0.6875 0.125
vt 0.75 0.125
vt 0.8125 0.125
vt 0.3125 0.625
vt 0.375 0.625
vt 0.4375 0.625
vt 0.5 0.625
vt 0.5625 0.625
vt 0.625 0.625
vt 0.6875 0.625
vt 0.75 0.625
vt 0.8125 0.625
vt 0.875 0.625
vt 0.9375 0.625
vt 1 0.625
vt 0.0625 0.0625
vt 0.125 0.0625
vt 0.1875 0.0625
vt 0.25 0.0625
vt 0.3125 0.0625
vt 0.375 0.0625
vt 0.4375 0.0625
vt 0.5 0.0625
vt 0.5625 0.0625
vt 0.625 0.0625
vt 0.6875 0.0625
vt 0.75 0.0625
vt 0.8125 0.0625
vt 0.875 0.0625
vt 0.9375 0.0625
vt 0.9375 0.125
vt 0.875 0.125
vt 0.0625 0
vt 0.125 0
vt 0.1875 0
vt 0.25 0
vt 0.3125 0
vt 0.375 0
vt 0.4375 0
vt 0.5 0
vt 0.5625 0
vt 0.625 0
vt 0.6875 0
vt 0.75 0
vt 0.8125 0
vt 1 0.5625
vt 0 0.5625
vt 0 0.625

# Normal
vn 0 0 -1

# Mesh description
g Map2_mesh_0002

# Faces
f 1/1/1 2/2/1 3/3/1 4/4/1
f 5/2/1 6/5/1 7/6/1 8/3/1
f 9/5/1 10/7/1 11/8/1 12/6/1
f 13/9/1 14/10/1 15/11/1 16/12/1
f 17/10/1 18/13/1 19/14/1 20/11/1
f 21/13/1 22/15/1 23/16/1 24/14/1
f 25/15/1 26/17/1 27/18/1 28/16/1
f 29/17/1 30/19/1 31/20/1 32/18/1
f 33/19/1 34/21/1 35/22/1 36/20/1
f 37/21/1 38/23/1 39/24/1 40/22/1
f 41/23/1 42/25/1 43/26/1 44/24/1
f 45/25/1 46/27/1 47/28/1 48/26/1
f 49/27/1 50/29/1 51/30/1 52/28/1
f 53/29/1 54/31/1 55/32/1 56/30/1
f 57/31/1 58/33/1 59/34/1 60/32/1
f 61/33/1 62/35/1 63/36/1 64/34/1
f 65/35/1 66/37/1 67/38/1 68/36/1
f 69/39/1 70/40/1 71/41/1 72/42/1
f 73/39/1 74/40/1 75/41/1 76/42/1
f 77/40/1 78/43/1 79/44/1 80/41/1
f 81/43/1 82/45/1 83/46/1 84/44/1
f 85/45/1 86/47/1 87/48/1 88/46/1
f 89/47/1 90/49/1 91/50/1 92/48/1
f 93/49/1 94/51/1 95/52/1 96/50/1
f 97/51/1 98/53/1 99/54/1 100/52/1
f 101/55/1 102/56/1 103/2/1 104/1/1
f 105/56/1 106/57/1 107/5/1 108/2/1
f 109/57/1 110/58/1 111/7/1 112/5/1
f 113/59/1 114/60/1 115/10/1 116/9/1
f 117/60/1 118/61/1 119/13/1 120/10/1
f 121/61/1 122/62/1 123/15/1 124/13/1
f 125/62/1 126/63/1 127/17/1 128/15/1
f 129/63/1 130/64/1 131/19/1 132/17/1
f 133/64/1 134/65/1 135/21/1 136/19/1
f 137/65/1 138/66/1 139/23/1 140/21/1
f 141/66/1 142/67/1 143/25/1 144/23/1
f 145/67/1 146/68/1 147/27/1 148/25/1
f 149/68/1 150/69/1 151/29/1 152/27/1
f 153/69/1 154/70/1 155/31/1 156/29/1
f 157/70/1 158/71/1 159/33/1 160/31/1
f 161/71/1 162/72/1 163/35/1 164/33/1
f 165/72/1 166/73/1 167/37/1 168/35/1
f 169/74/1 170/75/1 171/76/1 172/77/1
f 173/75/1 174/78/1 175/79/1 176/76/1
f 177/78/1 178/80/1 179/81/1 180/79/1
f 181/80/1 182/82/1 183/83/1 184/81/1
f 185/82/1 186/84/1 187/85/1 188/83/1
f 189/84/1 190/86/1 191/87/1 192/85/1
f 193/88/1 194/89/1 195/40/1 196/39/1
f 197/89/1 198/90/1 199/43/1 200/40/1
f 201/90/1 202/91/1 203/45/1 204/43/1
f 205/91/1 206/92/1 207/47/1 208/45/1
f 209/92/1 210/93/1 211/49/1 212/47/1
f 213/93/1 214/94/1 215/51/1 216/49/1
f 217/94/1 218/95/1 219/53/1 220/51/1
f 221/96/1 222/97/1 223/60/1 224/59/1
f 225/97/1 226/98/1 227/61/1 228/60/1
f 229/98/1 230/99/1 231/62/1 232/61/1
f 233/99/1 234/100/1 235/63/1 236/62/1
f 237/100/1 238/101/1 239/64/1 240/63/1
f 241/101/1 242/102/1 243/65/1 244/64/1
f 245/102/1 246/103/1 247/66/1 248/65/1
f 249/103/1 250/104/1 251/67/1 252/66/1
f 253/104/1 254/105/1 255/68/1 256/67/1
f 257/105/1 258/106/1 259/69/1 260/68/1
f 261/106/1 262/107/1 263/70/1 264/69/1
f 265/107/1 266/108/1 267/71/1 268/70/1
f 269/108/1 270/109/1 271/72/1 272/71/1
f 273/109/1 274/110/1 275/73/1 276/72/1
f 277/111/1 278/112/1 279/75/1 280/74/1
f 281/112/1 282/113/1 283/78/1 284/75/1
f 285/113/1 286/114/1 287/80/1 288/78/1
f 289/114/1 290/115/1 291/82/1 292/80/1
f 293/115/1 294/116/1 295/84/1 296/82/1
f 297/116/1 298/117/1 299/86/1 300/84/1
f 301/118/1 302/4/1 303/89/1 304/88/1
f 305/4/1 306/3/1 307/90/1 308/89/1
f 309/3/1 310/6/1 311/91/1 312/90/1
f 313/6/1 314/8/1 315/92/1 316/91/1
f 317/8/1 318/119/1 319/93/1 320/92/1
f 321/119/1 322/120/1 323/94/1 324/93/1
f 325/120/1 326/121/1 327/95/1 328/94/1
f 329/122/1 330/123/1 331/97/1 332/96/1
f 333/123/1 334/124/1 335/98/1 336/97/1
f 337/124/1 338/125/1 339/99/1 340/98/1
f 341/125/1 342/126/1 343/100/1 344/99/1
f 345/126/1 346/127/1 347/101/1 348/100/1
f 349/127/1 350/128/1 351/102/1 352/101/1
f 353/128/1 354/129/1 355/103/1 356/102/1
f 357/129/1 358/130/1 359/104/1 360/103/1
f 361/130/1 362/131/1 363/105/1 364/104/1
f 365/131/1 366/132/1 367/106/1 368/105/1
f 369/132/1 370/133/1 371/107/1 372/106/1
f 373/133/1 374/134/1 375/108/1 376/107/1
f 377/134/1 378/135/1 379/109/1 380/108/1
f 381/135/1 382/136/1 383/110/1 384/109/1
f 385/137/1 386/138/1 387/112/1 388/111/1
f 389/138/1 390/139/1 391/113/1 392/112/1
f 393/139/1 394/140/1 395/114/1 396/113/1
f 397/140/1 398/141/1 399/115/1 400/114/1
f 401/141/1 402/142/1 403/116/1 404/115/1
f 405/142/1 406/143/1 407/117/1 408/116/1
f 409/144/1 410/145/1 411/123/1 412/122/1
f 413/145/1 414/146/1 415/124/1 416/123/1
f 417/146/1 418/147/1 419/125/1 420/124/1
f 421/147/1 422/148/1 423/126/1 424/125/1
f 425/148/1 426/149/1 427/127/1 428/126/1
f 429/149/1 430/150/1 431/128/1 432/127/1
f 433/150/1 434/151/1 435/129/1 436/128/1
f 437/151/1 438/152/1 439/130/1 440/129/1
f 441/152/1 442/153/1 443/131/1 444/130/1
f 445/153/1 446/154/1 447/132/1 448/131/1
f 449/154/1 450/155/1 451/133/1 452/132/1
f 453/155/1 454/156/1 455/134/1 456/133/1
f 457/157/1 458/158/1 459/145/1 460/144/1
f 461/158/1 462/159/1 463/146/1 464/145/1
f 465/159/1 466/160/1 467/147/1 468/146/1
f 469/160/1 470/161/1 471/148/1 472/147/1
f 473/161/1 474/162/1 475/149/1 476/148/1
f 477/162/1 478/163/1 479/150/1 480/149/1
f 481/163/1 482/164/1 483/151/1 484/150/1
f 485/164/1 486/165/1 487/152/1 488/151/1
f 489/165/1 490/166/1 491/153/1 492/152/1
f 493/166/1 494/167/1 495/154/1 496/153/1
f 497/167/1 498/168/1 499/155/1 500/154/1
f 501/168/1 502/169/1 503/156/1 504/155/1
f 505/1/1 506/2/1 507/3/1 508/4/1
f 509/2/1 510/5/1 511/6/1 512/3/1
f 513/5/1 514/7/1 515/8/1 516/6/1
f 517/7/1 518/170/1 519/119/1 520/8/1
f 521/170/1 522/171/1 523/120/1 524/119/1
f 525/171/1 526/172/1 527/121/1 528/120/1
f 529/172/1 530/173/1 531/174/1 532/121/1
f 533/173/1 534/175/1 535/137/1 536/174/1
f 537/175/1 538/176/1 539/138/1 540/137/1
f 541/176/1 542/177/1 543/139/1 544/138/1
f 545/177/1 546/178/1 547/140/1 548/139/1
f 549/178/1 550/179/1 551/141/1 552/140/1
f 553/179/1 554/180/1 555/142/1 556/141/1
f 557/180/1 558/181/1 559/143/1 560/142/1
f 561/181/1 562/182/1 563/183/1 564/143/1
f 565/184/1 566/185/1 567/158/1 568/157/1
f 569/185/1 570/186/1 571/159/1 572/158/1
f 573/186/1 574/187/1 575/160/1 576/159/1
f 577/187/1 578/188/1 579/161/1 580/160/1
f 581/188/1 582/189/1 583/162/1 584/161/1
f 585/189/1 586/190/1 587/163/1 588/162/1
f 589/190/1 590/191/1 591/164/1 592/163/1
f 593/191/1 594/192/1 595/165/1 596/164/1
f 597/192/1 598/193/1 599/166/1 600/165/1
f 601/193/1 602/194/1 603/167/1 604/166/1
f 605/194/1 606/195/1 607/168/1 608/167/1
f 609/195/1 610/196/1 611/169/1 612/168/1
f 613/55/1 614/56/1 615/2/1 616/1/1
f 617/56/1 618/57/1 619/5/1 620/2/1
f 621/57/1 622/58/1 623/7/1 624/5/1
f 625/58/1 626/197/1 627/170/1 628/7/1
f 629/197/1 630/198/1 631/171/1 632/170/1
f 633/198/1 634/199/1 635/172/1 636/171/1
f 637/199/1 638/200/1 639/173/1 640/172/1
f 641/200/1 642/201/1 643/175/1 644/173/1
f 645/201/1 646/202/1 647/176/1 648/175/1
f 649/202/1 650/203/1 651/177/1 652/176/1
f 653/203/1 654/204/1 655/178/1 656/177/1
f 657/204/1 658/205/1 659/179/1 660/178/1
f 661/205/1 662/206/1 663/180/1 664/179/1
f 665/206/1 666/207/1 667/181/1 668/180/1
f 669/207/1 670/208/1 671/182/1 672/181/1
f 673/209/1 674/210/1 675/185/1 676/184/1
f 677/210/1 678/211/1 679/186/1 680/185/1
f 681/211/1 682/212/1 683/187/1 684/186/1
f 685/212/1 686/213/1 687/188/1 688/187/1
f 689/213/1 690/214/1 691/189/1 692/188/1
f 693/214/1 694/215/1 695/190/1 696/189/1
f 697/215/1 698/216/1 699/191/1 700/190/1
f 701/216/1 702/217/1 703/192/1 704/191/1
f 705/217/1 706/218/1 707/193/1 708/192/1
f 709/218/1 710/219/1 711/194/1 712/193/1
f 713/219/1 714/220/1 715/195/1 716/194/1
f 717/220/1 718/221/1 719/196/1 720/195/1
f 721/222/1 722/223/1 723/224/1 724/225/1
f 725/226/1 726/227/1 727/210/1 728/209/1
f 729/227/1 730/228/1 731/211/1 732/210/1
f 733/228/1 734/229/1 735/212/1 736/211/1
f 737/229/1 738/230/1 739/213/1 740/212/1
f 741/230/1 742/231/1 743/214/1 744/213/1
f 745/231/1 746/232/1 747/215/1 748/214/1
f 749/232/1 750/233/1 751/216/1 752/215/1
f 753/233/1 754/234/1 755/217/1 756/216/1
f 757/234/1 758/235/1 759/218/1 760/217/1
f 761/235/1 762/236/1 763/219/1 764/218/1
f 765/236/1 766/237/1 767/220/1 768/219/1
f 769/237/1 770/238/1 771/221/1 772/220/1
f 773/8/1 774/119/1 775/170/1 776/7/1
f 777/119/1 778/120/1 779/171/1 780/170/1
f 781/120/1 782/121/1 783/172/1 784/171/1
f 785/121/1 786/174/1 787/173/1 788/172/1
f 789/174/1 790/137/1 791/175/1 792/173/1
f 793/138/1 794/137/1 795/175/1 796/176/1
f 797/137/1 798/174/1 799/173/1 800/175/1
f 801/174/1 802/121/1 803/172/1 804/173/1
f 805/121/1 806/120/1 807/171/1 808/172/1
f 809/120/1 810/119/1 811/170/1 812/171/1
f 813/119/1 814/8/1 815/7/1 816/170/1
f 817/8/1 818/6/1 819/5/1 820/7/1
f 821/6/1 822/3/1 823/2/1 824/5/1
f 825/3/1 826/4/1 827/1/1 828/2/1
f 829/239/1 830/38/1 831/207/1 832/208/1
f 833/38/1 834/36/1 835/206/1 836/207/1
f 837/36/1 838/34/1 839/205/1 840/206/1
f 841/34/1 842/32/1 843/204/1 844/205/1
f 845/32/1 846/30/1 847/203/1 848/204/1
f 849/30/1 850/28/1 851/202/1 852/203/1
f 853/28/1 854/26/1 855/201/1 856/202/1
f 857/26/1 858/24/1 859/200/1 860/201/1
f 861/16/1 862/14/1 863/57/1 864/58/1
f 865/14/1 866/11/1 867/56/1 868/57/1
f 869/11/1 870/12/1 871/55/1 872/56/1
f 873/12/1 874/240/1 875/241/1 876/55/1

